# Created by Octave 3.6.2, Fri Apr 11 05:12:36 2014 CST <waldronluo@Debian>
# name: accruacyM
# type: matrix
# rows: 6
# columns: 90
 189 0.9893617021276596 41 1 148 0.9864864864864865 189 1 41 1 148 1 189 0.9893617021276596 41 1 148 0.9864864864864865 189 1 41 1 148 1 189 1 41 1 148 1 189 1 41 1 148 1 189 1 41 1 148 1 189 1 41 1 148 1 189 1 41 1 148 1 189 1 41 1 148 1 189 0.9893617021276596 41 1 148 0.9864864864864865 189 1 41 1 148 1 189 0.9893617021276596 41 1 148 0.9864864864864865 189 0.9893617021276596 41 1 148 0.9864864864864865 189 1 41 1 148 1
 189 0.7872340425531915 41 0 148 1 189 0.7872340425531915 41 0 148 1 189 0.7872340425531915 41 0 148 1 189 0.7872340425531915 41 0 148 1 189 0.7872340425531915 41 0 148 1 189 0.7872340425531915 41 0 148 1 189 0.7872340425531915 41 0 148 1 189 0.7872340425531915 41 0 148 1 189 0.7872340425531915 41 0 148 1 189 0.7872340425531915 41 0 148 1 189 0.7872340425531915 41 0 148 1 189 0.7872340425531915 41 0 148 1 189 0.7872340425531915 41 0 148 1 189 0.7872340425531915 41 0 148 1 189 0.7872340425531915 41 0 148 1
 189 0.9893617021276596 41 1 148 0.9864864864864865 189 0.9893617021276596 41 1 148 0.9864864864864865 189 1 41 1 148 1 189 0.9893617021276596 41 1 148 0.9864864864864865 189 0.9893617021276596 41 1 148 0.9864864864864865 189 0.9893617021276596 41 1 148 0.9864864864864865 189 1 41 1 148 1 189 1 41 1 148 1 189 0.9893617021276596 41 1 148 0.9864864864864865 189 0.9893617021276596 41 1 148 0.9864864864864865 189 1 41 1 148 1 189 0.9893617021276596 41 1 148 0.9864864864864865 189 0.9893617021276596 41 1 148 0.9864864864864865 189 1 41 1 148 1 189 1 41 1 148 1
 189 0.7872340425531915 41 0 148 1 189 0.7872340425531915 41 0 148 1 189 0.7872340425531915 41 0 148 1 189 0.7872340425531915 41 0 148 1 189 0.7872340425531915 41 0 148 1 189 0.7872340425531915 41 0 148 1 189 0.7872340425531915 41 0 148 1 189 0.7872340425531915 41 0 148 1 189 0.7872340425531915 41 0 148 1 189 0.7872340425531915 41 0 148 1 189 0.7872340425531915 41 0 148 1 189 0.7872340425531915 41 0 148 1 189 0.7872340425531915 41 0 148 1 189 0.7872340425531915 41 0 148 1 189 0.7872340425531915 41 0 148 1
 189 0.7872340425531915 41 0 148 1 189 0.7872340425531915 41 0 148 1 189 0.7872340425531915 41 0 148 1 189 0.7872340425531915 41 0 148 1 189 0.7872340425531915 41 0 148 1 189 0.7872340425531915 41 0 148 1 189 0.7872340425531915 41 0 148 1 189 0.7872340425531915 41 0 148 1 189 0.7872340425531915 41 0 148 1 189 0.7872340425531915 41 0 148 1 189 0.7872340425531915 41 0 148 1 189 0.7872340425531915 41 0 148 1 189 0.7872340425531915 41 0 148 1 189 0.7872340425531915 41 0 148 1 189 0.7872340425531915 41 0 148 1
 189 0.9361702127659575 41 0.8 148 0.972972972972973 189 0.925531914893617 41 0.75 148 0.972972972972973 189 0.9574468085106383 41 0.8 148 1 189 0.9468085106382979 41 0.8 148 0.9864864864864865 189 0.9468085106382979 41 0.75 148 1 189 0.925531914893617 41 0.65 148 1 189 0.9468085106382979 41 0.75 148 1 189 0.9574468085106383 41 0.85 148 0.9864864864864865 189 0.9361702127659575 41 0.75 148 0.9864864864864865 189 0.9468085106382979 41 0.75 148 1 189 0.9148936170212766 41 0.7 148 0.972972972972973 189 0.925531914893617 41 0.65 148 1 189 0.9468085106382979 41 0.8 148 0.9864864864864865 189 0.9787234042553191 41 0.9 148 1 189 0.9361702127659575 41 0.7 148 1


