# Created by Octave 3.6.2, Thu Apr 10 20:10:11 2014 CST <waldronluo@Debian>
# name: accruacyM
# type: matrix
# rows: 6
# columns: 60
 146 1 41 1 105 1 146 1 41 1 105 1 146 0.9861111111111112 41 1 105 0.9807692307692307 146 1 41 1 105 1 146 1 41 1 105 1 146 1 41 1 105 1 146 1 41 1 105 1 146 1 41 1 105 1 146 1 41 1 105 1 146 1 41 1 105 1
 146 0.7222222222222222 41 0 105 1 146 0.7222222222222222 41 0 105 1 146 0.7222222222222222 41 0 105 1 146 0.7222222222222222 41 0 105 1 146 0.7222222222222222 41 0 105 1 146 0.7222222222222222 41 0 105 1 146 0.7222222222222222 41 0 105 1 146 0.7222222222222222 41 0 105 1 146 0.7222222222222222 41 0 105 1 146 0.7222222222222222 41 0 105 1
 146 1 41 1 105 1 146 1 41 1 105 1 146 0.9861111111111112 41 1 105 0.9807692307692307 146 1 41 1 105 1 146 1 41 1 105 1 146 0.9722222222222222 41 1 105 0.9615384615384616 146 0.9583333333333334 41 1 105 0.9423076923076923 146 0.9861111111111112 41 1 105 0.9807692307692307 146 1 41 1 105 1 146 0.9861111111111112 41 1 105 0.9807692307692307
 146 0.7222222222222222 41 0 105 1 146 0.7222222222222222 41 0 105 1 146 0.7222222222222222 41 0 105 1 146 0.7222222222222222 41 0 105 1 146 0.7222222222222222 41 0 105 1 146 0.7222222222222222 41 0 105 1 146 0.7361111111111112 41 0.05 105 1 146 0.7222222222222222 41 0 105 1 146 0.7222222222222222 41 0 105 1 146 0.7083333333333334 41 0 105 0.9807692307692307
 146 0.7222222222222222 41 0 105 1 146 0.7222222222222222 41 0 105 1 146 0.7222222222222222 41 0 105 1 146 0.7222222222222222 41 0 105 1 146 0.7222222222222222 41 0 105 1 146 0.7222222222222222 41 0 105 1 146 0.7222222222222222 41 0 105 1 146 0.7222222222222222 41 0 105 1 146 0.7222222222222222 41 0 105 1 146 0.7222222222222222 41 0 105 1
 146 0.9027777777777778 41 0.65 105 1 146 0.9027777777777778 41 0.7 105 0.9807692307692307 146 0.8888888888888888 41 0.65 105 0.9807692307692307 146 0.9305555555555556 41 0.75 105 1 146 0.9166666666666666 41 0.7 105 1 146 0.9166666666666666 41 0.75 105 0.9807692307692307 146 0.9722222222222222 41 0.9 105 1 146 0.9305555555555556 41 0.8 105 0.9807692307692307 146 0.9027777777777778 41 0.8 105 0.9423076923076923 146 0.9305555555555556 41 0.75 105 1


